[
  {
    "action": "ADD_PLAYLIST",
    "payload": {
      "user_id": "2",
      "song_ids": [
        "7",
        "12"
      ]
    }
  },

  {
    "action": "REMOVE_PLAYLIST",
    "payload": {
      "playlist_id": "1"
    }
  },

  {
    "action": "ADD_SONG",
    "payload": {
      "playlist_id": "2",
      "song_id": "12"
    }
  }
]
